{"_links":{"self":{"href":"http:\/\/192.168.43.253\/apigility\/public\/index.php\/feed?page=1"},"first":{"href":"http:\/\/192.168.43.253\/apigility\/public\/index.php\/feed"},"last":{"href":"http:\/\/192.168.43.253\/apigility\/public\/index.php\/feed?page=28"},"next":{"href":"http:\/\/192.168.43.253\/apigility\/public\/index.php\/feed?page=2"}},"_embedded":{"feed":[{"id":"1","sensor":"gnss","payload":"","message":"location","lat":"66.61","lon":"25.82","time":"2018-03-20 08:02:49","_links":{"self":{"href":"http:\/\/192.168.43.253\/apigility\/public\/index.php\/feed\/1"}}},{"id":"2","sensor":"shake","payload":"2.1","message":"alert","lat":"66.61634146341463","lon":"25.826341463414632","time":"2018-03-20 08:03:15","_links":{"self":{"href":"http:\/\/192.168.43.253\/apigility\/public\/index.php\/feed\/2"}}},{"id":"3","sensor":"shake","payload":"1.8","message":"bump","lat":"66.61926829268292","lon":"25.829268292682926","time":"2018-03-20 08:03:27","_links":{"self":{"href":"http:\/\/192.168.43.253\/apigility\/public\/index.php\/feed\/3"}}},{"id":"4","sensor":"gnss","payload":"","message":"location","lat":"66.61999999999999","lon":"25.83","time":"2018-03-20 08:03:30","_links":{"self":{"href":"http:\/\/192.168.43.253\/apigility\/public\/index.php\/feed\/4"}}},{"id":"5","sensor":"shake","payload":"2.4","message":"alert","lat":"66.62977777777778","lon":"25.839777777777776","time":"2018-03-20 08:04:58","_links":{"self":{"href":"http:\/\/192.168.43.253\/apigility\/public\/index.php\/feed\/5"}}},{"id":"6","sensor":"gnss","payload":"","message":"location","lat":"66.63","lon":"25.84","time":"2018-03-20 08:05:00","_links":{"self":{"href":"http:\/\/192.168.43.253\/apigility\/public\/index.php\/feed\/6"}}},{"id":"7","sensor":"gnss","payload":"","message":"location","lat":"66.483051","lon":"25.715664","time":"2018-03-20 08:24:25","_links":{"self":{"href":"http:\/\/192.168.43.253\/apigility\/public\/index.php\/feed\/7"}}},{"id":"8","sensor":"gnss","payload":"","message":"location","lat":"66.481436","lon":"25.721754","time":"2018-03-20 08:24:25","_links":{"self":{"href":"http:\/\/192.168.43.253\/apigility\/public\/index.php\/feed\/8"}}},{"id":"9","sensor":"gnss","payload":"","message":"location","lat":"66.481742","lon":"25.721765","time":"2018-03-20 08:24:30","_links":{"self":{"href":"http:\/\/192.168.43.253\/apigility\/public\/index.php\/feed\/9"}}},{"id":"10","sensor":"gnss","payload":"","message":"location","lat":"66.481738","lon":"25.721817","time":"2018-03-20 08:24:36","_links":{"self":{"href":"http:\/\/192.168.43.253\/apigility\/public\/index.php\/feed\/10"}}},{"id":"11","sensor":"gnss","payload":"","message":"location","lat":"66.481737","lon":"25.721827","time":"2018-03-20 08:24:42","_links":{"self":{"href":"http:\/\/192.168.43.253\/apigility\/public\/index.php\/feed\/11"}}},{"id":"12","sensor":"gnss","payload":"","message":"location","lat":"66.481737","lon":"25.721827","time":"2018-03-20 08:24:47","_links":{"self":{"href":"http:\/\/192.168.43.253\/apigility\/public\/index.php\/feed\/12"}}},{"id":"13","sensor":"gnss","payload":"","message":"location","lat":"66.481712","lon":"25.721722","time":"2018-03-20 08:24:53","_links":{"self":{"href":"http:\/\/192.168.43.253\/apigility\/public\/index.php\/feed\/13"}}},{"id":"14","sensor":"gnss","payload":"","message":"location","lat":"66.481707","lon":"25.721676","time":"2018-03-20 08:24:58","_links":{"self":{"href":"http:\/\/192.168.43.253\/apigility\/public\/index.php\/feed\/14"}}},{"id":"15","sensor":"gnss","payload":"","message":"location","lat":"66.481748","lon":"25.721778","time":"2018-03-20 08:25:04","_links":{"self":{"href":"http:\/\/192.168.43.253\/apigility\/public\/index.php\/feed\/15"}}},{"id":"16","sensor":"gnss","payload":"","message":"location","lat":"66.481754","lon":"25.721795","time":"2018-03-20 08:25:10","_links":{"self":{"href":"http:\/\/192.168.43.253\/apigility\/public\/index.php\/feed\/16"}}},{"id":"17","sensor":"gnss","payload":"","message":"location","lat":"66.481755","lon":"25.721797","time":"2018-03-20 08:25:16","_links":{"self":{"href":"http:\/\/192.168.43.253\/apigility\/public\/index.php\/feed\/17"}}},{"id":"18","sensor":"shake","payload":"3.3","message":"alert","lat":"66.4817474","lon":"25.7218806","time":"2018-03-20 08:25:18","_links":{"self":{"href":"http:\/\/192.168.43.253\/apigility\/public\/index.php\/feed\/18"}}},{"id":"19","sensor":"gnss","payload":"","message":"location","lat":"66.481736","lon":"25.722006","time":"2018-03-20 08:25:21","_links":{"self":{"href":"http:\/\/192.168.43.253\/apigility\/public\/index.php\/feed\/19"}}},{"id":"20","sensor":"gnss","payload":"","message":"location","lat":"66.481734","lon":"25.722038","time":"2018-03-20 08:25:27","_links":{"self":{"href":"http:\/\/192.168.43.253\/apigility\/public\/index.php\/feed\/20"}}},{"id":"21","sensor":"gnss","payload":"","message":"location","lat":"66.481733","lon":"25.722044","time":"2018-03-20 08:25:33","_links":{"self":{"href":"http:\/\/192.168.43.253\/apigility\/public\/index.php\/feed\/21"}}},{"id":"22","sensor":"gnss","payload":"","message":"location","lat":"66.481733","lon":"25.722045","time":"2018-03-20 08:25:39","_links":{"self":{"href":"http:\/\/192.168.43.253\/apigility\/public\/index.php\/feed\/22"}}},{"id":"23","sensor":"gnss","payload":"","message":"location","lat":"66.481733","lon":"25.722045","time":"2018-03-20 08:25:44","_links":{"self":{"href":"http:\/\/192.168.43.253\/apigility\/public\/index.php\/feed\/23"}}},{"id":"24","sensor":"gnss","payload":"","message":"location","lat":"66.481733","lon":"25.722045","time":"2018-03-20 08:25:49","_links":{"self":{"href":"http:\/\/192.168.43.253\/apigility\/public\/index.php\/feed\/24"}}},{"id":"25","sensor":"gnss","payload":"","message":"location","lat":"66.481733","lon":"25.722045","time":"2018-03-20 08:25:54","_links":{"self":{"href":"http:\/\/192.168.43.253\/apigility\/public\/index.php\/feed\/25"}}}]},"page_count":28,"page_size":25,"total_items":676,"page":1}